<?xml version="1.0" encoding="utf-8"?>
<!-- Generator: Adobe Illustrator 18.1.1, SVG Export Plug-In . SVG Version: 6.00 Build 0)  -->
<svg version="1.1" id="Layer_1" xmlns="http://www.w3.org/2000/svg" xmlns:xlink="http://www.w3.org/1999/xlink" x="0px" y="0px"
	 viewBox="0 0 935.6 498" enable-background="new 0 0 935.6 498" xml:space="preserve">
<linearGradient id="SVGID_1_" gradientUnits="userSpaceOnUse" x1="759.155" y1="-128.329" x2="332.7187" y2="522.2598">
	<stop  offset="8.786459e-02" style="stop-color:#F47F50"/>
	<stop  offset="0.9258" style="stop-color:#E05D26"/>
</linearGradient>
<path fill="url(#SVGID_1_)" d="M662.8,0h-3.2H92.2C34.7,66.2,0,152.6,0,247.2C0,343.4,36.1,431.3,95.4,498h564.1c0,0,0,0,0,0v0h276
	V0H662.8z"/>
</svg>
