<?xml version="1.0" encoding="utf-8"?>
<!-- Generator: Adobe Illustrator 18.1.1, SVG Export Plug-In . SVG Version: 6.00 Build 0)  -->
<svg version="1.1" id="Layer_1" xmlns="http://www.w3.org/2000/svg" xmlns:xlink="http://www.w3.org/1999/xlink" x="0px" y="0px"
	 viewBox="0 0 189 50.4" enable-background="new 0 0 189 50.4" xml:space="preserve">
<path fill="#6CBE45" d="M32.5,28c0.2,5.1,3.3,8,7.2,7.9c3.4-0.1,6.4-2.6,6.3-4.7c0-0.7-0.4-1.1-0.9-1.1c-1,0-1.2,2.4-4,2.5
	c-1.3,0-2.6-0.4-3.5-2.7c2.6-0.9,6-3.4,5.9-7.1c-0.1-2.3-1.5-4.4-4.3-4.3C35.3,18.6,32.3,22.8,32.5,28z M38.8,21.9
	c0.8,0,1.2,0.9,1.2,1.8c0.1,1.8-1.3,3-2.9,3.9c0-0.2-0.1-0.4-0.1-0.7C37.1,24.3,37.7,21.9,38.8,21.9z"/>
<path fill="#6CBE45" d="M50.7,35.7c1,0,2.4-0.9,3.1-1.6c0.6-0.7,0.4-1.8,1.3-4.8c2.2-7.7,4.3-9.2,4.2-10.3c0-1-2.1-1.7-3.4-1.6
	c-0.6,0-1,0.2-1.2,0.4C52.1,21,52.1,30,52.1,30c-2.6-6-2.3-9.1-2.4-10.5c-0.1-1-0.7-1.4-1.3-1.4c-1,0-3.9,1.7-3.8,3.3
	C44.8,25.7,48,35.8,50.7,35.7z"/>
<path fill="#6CBE45" d="M59.1,29.2c0.1,3.3,1.4,5.9,4.7,5.8c2.2-0.1,3.4-1.6,4-3c1.3,1.8,3.3,2.7,5.5,2.6c3.4-0.1,6.4-2.6,6.3-4.7
	c0-0.7-0.4-1.1-0.9-1.1c-1,0-1.2,2.4-4,2.5c-1.3,0-2.6-0.4-3.5-2.7c2.6-0.9,6-3.4,5.9-7.1c-0.1-2.3-1.5-4.4-4.3-4.3
	c-3.9,0.1-6.9,4.3-6.7,9.5c0,1.1,0.2,2,0.5,2.9c-0.4,0.6-0.6,1.7-1.4,1.7c-0.8,0-1.3-1.1-1.4-4.8c-0.1-3.7,0.6-6.4,0.6-7.6
	c0-1-0.8-1.4-1.3-1.4c-1.1,0-2.8,1.4-3.3,2.6C59.2,21.4,59,26.4,59.1,29.2z M72.4,20.7c0.8,0,1.2,0.9,1.2,1.8c0.1,1.8-1.3,3-2.9,3.9
	c0-0.2-0.1-0.4-0.1-0.7C70.6,23.1,71.2,20.7,72.4,20.7z"/>
<path fill="#6CBE45" d="M62.4,16.1c1.4,0,3.4-1.8,3.3-4.6c0-1.4-1.1-1.9-2.2-1.9c-1.3,0-3.3,1.2-3.3,3.4
	C60.3,15.5,61.4,16.1,62.4,16.1z"/>
<path fill="#6CBE45" d="M84.3,34.5c1,0,2.4-0.9,3.1-1.6c0.9-1,0.4-4.3,0.8-7.1c1.3,4.4,3.4,8.4,4.9,8.4c1,0,2.4-0.9,3.1-1.6
	c0.6-0.7,0.5-1.8,1.3-4.8c2.1-7.7,4.2-9.2,4.2-10.3c0-1-2-1.7-3.4-1.6c-0.6,0-1,0.2-1.2,0.4c-2.5,3.3-2.8,12.5-2.8,12.5
	c-1.6-3.7-2.1-7.2-2.2-10.9c0-0.7-0.5-1-1.3-1c-1.1,0-2.7,0.8-3.5,1.6C85.6,20.2,85.6,29,85.6,29c-2.3-5.8-2.3-9.3-2.5-10.6
	c-0.1-1-0.7-1.4-1.2-1.4c-1,0-3.7,1.7-3.7,3.3C78.3,24.5,81.5,34.6,84.3,34.5z"/>
<path fill="#6CBE45" d="M109.7,29.3c0,0.9-0.5,1.5-1.5,1.6c-1.8,0.1-2.6-2.2-2.8-3.8c-0.1-1-0.3-1.6-1-1.6c-1,0-3.1,1.8-3,3.9
	c0.1,2.1,2.9,4.5,6.6,4.3c3.7-0.1,6.2-1.8,6.1-5.1c-0.2-5.3-8-6.5-9.1-7.8l0.4,0c1.4,0,5.8-0.2,6.7-1.1c1.1-1,1.5-2.7,1.4-3.6
	c0-0.6-0.2-1.2-1.1-1.2c-0.4,0-0.9,0.2-1.5,0.4c-5.5,2.4-9.2,1.4-9.1,4.7C101.8,23.4,109.6,26.1,109.7,29.3z"/>
<path fill="#6CBE45" d="M117.2,33.1c1.4,0,3.4-1.8,3.3-4.6c0-1.4-1.1-1.9-2.2-1.9c-1.3,0-3.3,1.2-3.3,3.4
	C115.1,32.5,116.1,33.2,117.2,33.1z"/>
<path fill="#6CBE45" d="M128.3,32.8c2.9-0.1,5.2-1.8,6-3.5c1.1,1.8,2.9,3.2,5.3,3.1c3.8-0.1,6.5-3.8,6.3-9.9
	c-0.1-3.6-1.5-7.7-3.2-7.6c-0.4,0-0.9,0.2-1.4,0.4c-0.3-0.2-0.7-0.3-1.4-0.3c-2.9,0.1-7.2,2.8-6.9,10.2c0,0.6,0.1,1.3,0.3,2
	c-0.7,0.6-1.2,2.3-3.5,2.4c-2,0.1-3.8-1.3-4-5.2c-0.1-2.3,0.4-5.4,1.9-5.5c0.5,0,0.8,0.4,0.8,0.9c0,0.9-0.8,1.7-0.7,2.8
	c0,0.8,0.5,1.4,1.6,1.4c1.9-0.1,2.9-2.1,2.9-4.3c-0.1-2.2-1.3-4.2-4.2-4.1c-4.2,0.1-7,4.5-6.8,9.7C121.4,30.3,124.6,32.9,128.3,32.8
	z M139,18c1.5,0.5,3,2.6,3.1,6c0.1,2.4-0.5,5-1.8,5.1c-0.8,0-2.2-1.4-2.3-5.3C137.8,20.4,138.5,18.8,139,18z"/>
<path fill="#6CBE45" d="M148.6,32c1.4,0,3.4-1.8,3.3-4.6c0-1.4-1.1-1.9-2.2-1.9c-1.3,0-3.3,1.2-3.3,3.4
	C146.5,31.4,147.5,32.1,148.6,32z"/>
<path fill="#6CBE45" d="M157.5,31.8c1.8-0.1,3.1-1.1,3.7-2.3c0.7,1.3,2,2.1,3.8,2c1.3,0,2.2-0.6,2.9-1.3c0.1,0.7,0.4,1.1,0.9,1.1
	c3.4-0.1,4-1.7,3.9-2.6c-0.1-2.4,0.3-3.5,1-5.3c1.3,3.2,3.1,7.6,6.6,7.5c3.3-0.1,4.4-3.6,4.4-4.5c0-0.6-0.4-1.2-0.9-1.2
	c-1,0-0.9,2.1-2.1,2.2c-1.4,0.1-3.5-3.4-4.5-8.1c2.7-1.8,4.6-1.3,4.6-3.1c0-0.8-1.9-3-3.2-3c-1.7,0.1-4.5,4-6.1,8
	c-0.2-5,1.3-15.8,1.3-16.5c0-1-0.8-1.4-1.3-1.4c-1.1,0-3.1,1.4-3.6,2.6c-0.9,2-1.1,15.6-1.1,20.7c-0.3,0.6-0.6,1.4-1.3,1.4
	c-0.8,0-1.2-1.1-1.4-4.8c-0.1-3.7,0.6-6.4,0.5-7.6c0-1-0.7-1.4-1.3-1.4c-1.1,0-2.9,1.4-3.4,2.6c-0.5,1.2-0.7,6.1-0.6,9
	c0,1.2-0.3,2.5-1.3,2.5c-0.9,0-1.5-1.1-1.6-4.8c-0.1-3.7,0.6-6.4,0.6-7.6c0-1-0.8-1.4-1.3-1.4c-1.1,0-2.8,1.4-3.4,2.6
	c-0.5,1.2-0.6,6.1-0.5,9C152.9,29.2,154.2,31.9,157.5,31.8z"/>
<path fill="#6CBE45" d="M189,41.9c0-4.4-2.5-8-9.5-8.5v0l0.5,0c-0.1,0,0.3,0,0.2,0c-0.3,0-0.4,0-0.7,0L34.3,37
	c-2.2-1.4-6.5-3.7-12.5-11.1l-1.9-2.3c8.8-1.6,13.8-7.1,13.8-13.1C33.6,4.2,28.1,0,19.2,0C9.2,0,0,5.2,0,7.8c0,0.5,0.4,1.1,1.1,1.1
	c0.6,0,1.5-0.4,2.7-0.9c-0.2,2.4,0,6.6-0.5,16.2C2.8,34.4,2.1,37.9,2.1,41.2c0,2.5,0.4,2.9,2.2,2.9c3.6,0,7-1.7,7-4.1
	c0-0.8,0.1-9.1,0.5-14.7c0-0.4,0.1-0.9,0.1-1.3c0.6,0,1.2,0.1,1.7,0.1c2.9,7.3,10.8,20.5,16.4,21.5l0.6,0.1l149.1,4.7
	c0.4,0,0.7,0.1,1.1,0.1c0.1,0,0.3,0,0.4,0l0.6,0l-0.5-0.1C186,49.8,189,46.2,189,41.9z M12.2,20.4h-0.1L13.4,5c0.8-0.1,1.5,0,2.2,0
	c7.9,0,9.3,4.3,9.3,6.7C25,16.3,19.9,20.4,12.2,20.4z"/>
</svg>
